{
    "borderAreas": [
        {
            "cereal_class_version": 1,
            "vertices": [],
            "holes": [],
            "color": 0
        },
        {
            "vertices": [],
            "holes": [],
            "color": 1
        },
        {
            "vertices": [],
            "holes": [],
            "color": 0
        },
        {
            "vertices": [],
            "holes": [],
            "color": 0
        },
        {
            "vertices": [
                {
                    "cereal_class_version": 0,
                    "position": {
                        "cereal_class_version": 0,
                        "value0": -350.0,
                        "value1": 220.0
                    }
                },
                {
                    "position": {
                        "value0": 350.0,
                        "value1": 215.0
                    }
                },
                {
                    "position": {
                        "value0": 335.0,
                        "value1": -300.0
                    }
                },
                {
                    "position": {
                        "value0": -345.0,
                        "value1": -270.0
                    }
                }
            ],
            "holes": [
                [
                    {
                        "position": {
                            "value0": -320.0,
                            "value1": 180.0
                        }
                    },
                    {
                        "position": {
                            "value0": 320.0,
                            "value1": 180.0
                        }
                    },
                    {
                        "position": {
                            "value0": 320.0,
                            "value1": -280.0
                        }
                    },
                    {
                        "position": {
                            "value0": -320.0,
                            "value1": -250.0
                        }
                    }
                ]
            ],
            "color": 2
        },
        {
            "vertices": [],
            "holes": [],
            "color": 0
        },
        {
            "vertices": [],
            "holes": [],
            "color": 1
        },
        {
            "vertices": [],
            "holes": [],
            "color": 1
        },
        {
            "vertices": [],
            "holes": [],
            "color": 1
        },
        {
            "vertices": [
                {
                    "position": {
                        "value0": -30.0,
                        "value1": 180.0
                    }
                },
                {
                    "position": {
                        "value0": 40.0,
                        "value1": 180.0
                    }
                },
                {
                    "position": {
                        "value0": 25.0,
                        "value1": 165.0
                    }
                },
                {
                    "position": {
                        "value0": -30.0,
                        "value1": 160.0
                    }
                }
            ],
            "holes": [],
            "color": 2
        },
        {
            "vertices": [],
            "holes": [],
            "color": 1
        },
        {
            "vertices": [],
            "holes": [],
            "color": 0
        },
        {
            "vertices": [],
            "holes": [],
            "color": 2
        },
        {
            "vertices": [],
            "holes": [],
            "color": 2
        },
        {
            "vertices": [
                {
                    "position": {
                        "value0": -320.0,
                        "value1": -55.0
                    }
                },
                {
                    "position": {
                        "value0": -270.0,
                        "value1": -40.0
                    }
                },
                {
                    "position": {
                        "value0": -270.0,
                        "value1": -85.0
                    }
                },
                {
                    "position": {
                        "value0": -320.0,
                        "value1": -85.0
                    }
                }
            ],
            "holes": [],
            "color": 0
        },
        {
            "vertices": [
                {
                    "position": {
                        "value0": -270.0,
                        "value1": 20.0
                    }
                },
                {
                    "position": {
                        "value0": -265.0,
                        "value1": 45.0
                    }
                },
                {
                    "position": {
                        "value0": -320.0,
                        "value1": 55.0
                    }
                },
                {
                    "position": {
                        "value0": -320.0,
                        "value1": 30.0
                    }
                }
            ],
            "holes": [],
            "color": 0
        },
        {
            "vertices": [
                {
                    "position": {
                        "value0": -299.5,
                        "value1": -49.25
                    }
                },
                {
                    "position": {
                        "value0": -320.0,
                        "value1": -30.0
                    }
                },
                {
                    "position": {
                        "value0": -320.0,
                        "value1": 10.0
                    }
                },
                {
                    "position": {
                        "value0": -270.0,
                        "value1": 10.0
                    }
                },
                {
                    "position": {
                        "value0": -270.0,
                        "value1": -40.0
                    }
                }
            ],
            "holes": [],
            "color": 1
        },
        {
            "vertices": [
                {
                    "position": {
                        "value0": -320.0,
                        "value1": 115.0
                    }
                },
                {
                    "position": {
                        "value0": -270.0,
                        "value1": 95.0
                    }
                },
                {
                    "position": {
                        "value0": -270.0,
                        "value1": 75.0
                    }
                },
                {
                    "position": {
                        "value0": -320.0,
                        "value1": 55.0
                    }
                }
            ],
            "holes": [],
            "color": 1
        },
        {
            "vertices": [
                {
                    "position": {
                        "value0": -270.0,
                        "value1": 95.0
                    }
                },
                {
                    "position": {
                        "value0": -270.0,
                        "value1": 135.0
                    }
                },
                {
                    "position": {
                        "value0": -340.0,
                        "value1": 145.0
                    }
                }
            ],
            "holes": [],
            "color": 0
        },
        {
            "vertices": [
                {
                    "position": {
                        "value0": -320.0,
                        "value1": 180.0
                    }
                },
                {
                    "position": {
                        "value0": -270.0,
                        "value1": 180.0
                    }
                },
                {
                    "position": {
                        "value0": -270.0,
                        "value1": 135.0
                    }
                },
                {
                    "position": {
                        "value0": -330.0,
                        "value1": 165.0
                    }
                }
            ],
            "holes": [],
            "color": 1
        },
        {
            "vertices": [
                {
                    "position": {
                        "value0": -275.0,
                        "value1": -85.0
                    }
                },
                {
                    "position": {
                        "value0": -260.0,
                        "value1": -110.0
                    }
                },
                {
                    "position": {
                        "value0": -255.0,
                        "value1": -190.0
                    }
                },
                {
                    "position": {
                        "value0": -220.0,
                        "value1": -220.0
                    }
                },
                {
                    "position": {
                        "value0": -225.0,
                        "value1": -140.0
                    }
                },
                {
                    "position": {
                        "value0": -245.0,
                        "value1": -75.0
                    }
                },
                {
                    "position": {
                        "value0": -245.0,
                        "value1": 150.0
                    }
                },
                {
                    "position": {
                        "value0": -280.0,
                        "value1": 145.0
                    }
                }
            ],
            "holes": [],
            "color": 2
        },
        {
            "vertices": [
                {
                    "position": {
                        "value0": 330.0,
                        "value1": 185.0
                    }
                },
                {
                    "position": {
                        "value0": 320.0,
                        "value1": -45.0
                    }
                },
                {
                    "position": {
                        "value0": 270.0,
                        "value1": -25.0
                    }
                },
                {
                    "position": {
                        "value0": 225.0,
                        "value1": -20.0
                    }
                },
                {
                    "position": {
                        "value0": 215.0,
                        "value1": 20.0
                    }
                },
                {
                    "position": {
                        "value0": 165.0,
                        "value1": 30.0
                    }
                },
                {
                    "position": {
                        "value0": 165.0,
                        "value1": 80.0
                    }
                },
                {
                    "position": {
                        "value0": 120.0,
                        "value1": 80.0
                    }
                },
                {
                    "position": {
                        "value0": 100.0,
                        "value1": 120.0
                    }
                },
                {
                    "position": {
                        "value0": 50.0,
                        "value1": 125.0
                    }
                },
                {
                    "position": {
                        "value0": 65.0,
                        "value1": 180.0
                    }
                }
            ],
            "holes": [
                []
            ],
            "color": 1
        },
        {
            "vertices": [],
            "holes": [],
            "color": 1
        },
        {
            "vertices": [
                {
                    "position": {
                        "value0": -135.0,
                        "value1": 130.0
                    }
                },
                {
                    "position": {
                        "value0": -75.0,
                        "value1": 130.0
                    }
                },
                {
                    "position": {
                        "value0": -75.0,
                        "value1": 120.0
                    }
                },
                {
                    "position": {
                        "value0": -135.0,
                        "value1": 120.0
                    }
                }
            ],
            "holes": [],
            "color": 0
        },
        {
            "vertices": [
                {
                    "position": {
                        "value0": -245.0,
                        "value1": 130.0
                    }
                },
                {
                    "position": {
                        "value0": -170.0,
                        "value1": 130.0
                    }
                },
                {
                    "position": {
                        "value0": -170.0,
                        "value1": 110.0
                    }
                },
                {
                    "position": {
                        "value0": -245.0,
                        "value1": 100.0
                    }
                }
            ],
            "holes": [],
            "color": 2
        }
    ],
    "editorObjects": [
        {
            "polymorphic_id": 2147483649,
            "polymorphic_name": "Goal",
            "ptr_wrapper": {
                "valid": 1,
                "data": {
                    "cereal_class_version": 0,
                    "value0": {
                        "value0": 262.5,
                        "value1": -68.25
                    }
                }
            }
        },
        {
            "polymorphic_id": 2147483650,
            "polymorphic_name": "Player",
            "ptr_wrapper": {
                "valid": 1,
                "data": {
                    "cereal_class_version": 0,
                    "value0": {
                        "value0": 5.0,
                        "value1": -209.99998474121095
                    },
                    "value1": 0
                }
            }
        },
        {
            "polymorphic_id": 2,
            "ptr_wrapper": {
                "valid": 1,
                "data": {
                    "value0": {
                        "value0": -290.0,
                        "value1": -65.0
                    },
                    "value1": 1
                }
            }
        },
        {
            "polymorphic_id": 2147483651,
            "polymorphic_name": "ColorSwitch",
            "ptr_wrapper": {
                "valid": 1,
                "data": {
                    "cereal_class_version": 0,
                    "value0": {
                        "value0": -150.0,
                        "value1": 104.99999237060547
                    }
                }
            }
        }
    ]
}