{
    "borderAreas": [
        {
            "cereal_class_version": 1,
            "vertices": [],
            "holes": [],
            "color": 1
        },
        {
            "vertices": [],
            "holes": [],
            "color": 0
        },
        {
            "vertices": [],
            "holes": [],
            "color": 1
        },
        {
            "vertices": [],
            "holes": [],
            "color": 1
        },
        {
            "vertices": [
                {
                    "cereal_class_version": 0,
                    "position": {
                        "cereal_class_version": 0,
                        "value0": -350.0,
                        "value1": 220.0
                    }
                },
                {
                    "position": {
                        "value0": 350.0,
                        "value1": 215.0
                    }
                },
                {
                    "position": {
                        "value0": 335.0,
                        "value1": -300.0
                    }
                },
                {
                    "position": {
                        "value0": -345.0,
                        "value1": -270.0
                    }
                }
            ],
            "holes": [
                [
                    {
                        "position": {
                            "value0": -320.0,
                            "value1": 180.0
                        }
                    },
                    {
                        "position": {
                            "value0": 320.0,
                            "value1": 180.0
                        }
                    },
                    {
                        "position": {
                            "value0": 320.0,
                            "value1": -280.0
                        }
                    },
                    {
                        "position": {
                            "value0": -320.0,
                            "value1": -250.0
                        }
                    }
                ]
            ],
            "color": 2
        },
        {
            "vertices": [],
            "holes": [],
            "color": 1
        },
        {
            "vertices": [],
            "holes": [],
            "color": 0
        },
        {
            "vertices": [],
            "holes": [],
            "color": 0
        },
        {
            "vertices": [],
            "holes": [],
            "color": 0
        },
        {
            "vertices": [],
            "holes": [],
            "color": 2
        },
        {
            "vertices": [],
            "holes": [],
            "color": 0
        },
        {
            "vertices": [
                {
                    "position": {
                        "value0": 30.0,
                        "value1": 180.0
                    }
                },
                {
                    "position": {
                        "value0": 320.0,
                        "value1": 180.0
                    }
                },
                {
                    "position": {
                        "value0": 320.0,
                        "value1": -40.0
                    }
                },
                {
                    "position": {
                        "value0": 55.0,
                        "value1": -95.0
                    }
                }
            ],
            "holes": [],
            "color": 1
        },
        {
            "vertices": [],
            "holes": [],
            "color": 2
        },
        {
            "vertices": [],
            "holes": [],
            "color": 2
        },
        {
            "vertices": [
                {
                    "position": {
                        "value0": -215.0,
                        "value1": 115.0
                    }
                },
                {
                    "position": {
                        "value0": -255.0,
                        "value1": 135.0
                    }
                },
                {
                    "position": {
                        "value0": -275.0,
                        "value1": 155.0
                    }
                },
                {
                    "position": {
                        "value0": -215.0,
                        "value1": 155.0
                    }
                },
                {
                    "position": {
                        "value0": -185.0,
                        "value1": 145.0
                    }
                },
                {
                    "position": {
                        "value0": -170.0,
                        "value1": 125.0
                    }
                },
                {
                    "position": {
                        "value0": -180.0,
                        "value1": 115.0
                    }
                }
            ],
            "holes": [],
            "color": 0
        },
        {
            "vertices": [
                {
                    "position": {
                        "value0": -215.0,
                        "value1": 115.0
                    }
                },
                {
                    "position": {
                        "value0": -185.0,
                        "value1": 145.0
                    }
                },
                {
                    "position": {
                        "value0": -170.0,
                        "value1": 125.0
                    }
                },
                {
                    "position": {
                        "value0": -180.0,
                        "value1": 115.0
                    }
                }
            ],
            "holes": [],
            "color": 2
        }
    ],
    "editorObjects": [
        {
            "polymorphic_id": 2147483649,
            "polymorphic_name": "Goal",
            "ptr_wrapper": {
                "valid": 1,
                "data": {
                    "cereal_class_version": 0,
                    "value0": {
                        "value0": 245.0,
                        "value1": -115.0
                    }
                }
            }
        },
        {
            "polymorphic_id": 2147483650,
            "polymorphic_name": "Player",
            "ptr_wrapper": {
                "valid": 1,
                "data": {
                    "cereal_class_version": 0,
                    "value0": {
                        "value0": 170.0,
                        "value1": 115.0
                    },
                    "value1": 0
                }
            }
        },
        {
            "polymorphic_id": 2,
            "ptr_wrapper": {
                "valid": 1,
                "data": {
                    "value0": {
                        "value0": -220.0,
                        "value1": 135.0
                    },
                    "value1": 1
                }
            }
        },
        {
            "polymorphic_id": 2147483651,
            "polymorphic_name": "ColorSwitch",
            "ptr_wrapper": {
                "valid": 1,
                "data": {
                    "cereal_class_version": 0,
                    "value0": {
                        "value0": -170.0,
                        "value1": 110.0
                    }
                }
            }
        }
    ]
}