{
    "borderAreas": [
        {
            "cereal_class_version": 1,
            "vertices": [],
            "holes": [],
            "color": 2
        },
        {
            "vertices": [],
            "holes": [],
            "color": 0
        },
        {
            "vertices": [],
            "holes": [],
            "color": 1
        },
        {
            "vertices": [],
            "holes": [],
            "color": 1
        },
        {
            "vertices": [
                {
                    "cereal_class_version": 0,
                    "position": {
                        "cereal_class_version": 0,
                        "value0": -350.0,
                        "value1": 220.0
                    }
                },
                {
                    "position": {
                        "value0": 350.0,
                        "value1": 215.0
                    }
                },
                {
                    "position": {
                        "value0": 335.0,
                        "value1": -200.0
                    }
                },
                {
                    "position": {
                        "value0": -345.0,
                        "value1": -200.0
                    }
                }
            ],
            "holes": [
                [
                    {
                        "position": {
                            "value0": -320.0,
                            "value1": 180.0
                        }
                    },
                    {
                        "position": {
                            "value0": 320.0,
                            "value1": 180.0
                        }
                    },
                    {
                        "position": {
                            "value0": 320.0,
                            "value1": -180.0
                        }
                    },
                    {
                        "position": {
                            "value0": -320.0,
                            "value1": -180.0
                        }
                    }
                ]
            ],
            "color": 2
        },
        {
            "vertices": [],
            "holes": [],
            "color": 1
        },
        {
            "vertices": [],
            "holes": [],
            "color": 0
        },
        {
            "vertices": [],
            "holes": [],
            "color": 0
        },
        {
            "vertices": [],
            "holes": [],
            "color": 0
        },
        {
            "vertices": [],
            "holes": [],
            "color": 2
        },
        {
            "vertices": [],
            "holes": [],
            "color": 0
        },
        {
            "vertices": [
                {
                    "position": {
                        "value0": -280.0,
                        "value1": 75.0
                    }
                },
                {
                    "position": {
                        "value0": -280.0,
                        "value1": 105.0
                    }
                },
                {
                    "position": {
                        "value0": -230.0,
                        "value1": 105.0
                    }
                },
                {
                    "position": {
                        "value0": -225.0,
                        "value1": 130.0
                    }
                },
                {
                    "position": {
                        "value0": -185.0,
                        "value1": 130.0
                    }
                },
                {
                    "position": {
                        "value0": -190.0,
                        "value1": 150.0
                    }
                },
                {
                    "position": {
                        "value0": -100.0,
                        "value1": 170.0
                    }
                },
                {
                    "position": {
                        "value0": -15.0,
                        "value1": 180.0
                    }
                },
                {
                    "position": {
                        "value0": -320.0,
                        "value1": 180.0
                    }
                },
                {
                    "position": {
                        "value0": -320.0,
                        "value1": 50.0
                    }
                }
            ],
            "holes": [],
            "color": 1
        },
        {
            "vertices": [
                {
                    "position": {
                        "value0": 25.0,
                        "value1": 180.0
                    }
                },
                {
                    "position": {
                        "value0": 320.0,
                        "value1": 180.0
                    }
                },
                {
                    "position": {
                        "value0": 320.0,
                        "value1": 30.0
                    }
                },
                {
                    "position": {
                        "value0": 270.0,
                        "value1": 70.0
                    }
                },
                {
                    "position": {
                        "value0": 250.0,
                        "value1": 105.0
                    }
                },
                {
                    "position": {
                        "value0": 155.0,
                        "value1": 155.0
                    }
                }
            ],
            "holes": [],
            "color": 0
        },
        {
            "vertices": [],
            "holes": [],
            "color": 1
        },
        {
            "vertices": [
                {
                    "position": {
                        "value0": -280.0,
                        "value1": 105.0
                    }
                },
                {
                    "position": {
                        "value0": -280.0,
                        "value1": 90.0
                    }
                },
                {
                    "position": {
                        "value0": -230.0,
                        "value1": 90.0
                    }
                },
                {
                    "position": {
                        "value0": -230.0,
                        "value1": 105.0
                    }
                }
            ],
            "holes": [],
            "color": 0
        }
    ],
    "editorObjects": [
        {
            "polymorphic_id": 2147483649,
            "polymorphic_name": "Player",
            "ptr_wrapper": {
                "valid": 1,
                "data": {
                    "cereal_class_version": 0,
                    "value0": {
                        "value0": -305.0,
                        "value1": 165.0
                    },
                    "value1": 0
                }
            }
        },
        {
            "polymorphic_id": 1,
            "ptr_wrapper": {
                "valid": 1,
                "data": {
                    "value0": {
                        "value0": 280.0,
                        "value1": 165.0
                    },
                    "value1": 1
                }
            }
        },
        {
            "polymorphic_id": 2147483650,
            "polymorphic_name": "Goal",
            "ptr_wrapper": {
                "valid": 1,
                "data": {
                    "cereal_class_version": 0,
                    "value0": {
                        "value0": -295.0,
                        "value1": 0.0
                    }
                }
            }
        }
    ]
}